<svg xmlns="http://www.w3.org/2000/svg" width="6" height="9" viewBox="0 0 6 9">
    <g fill="none" fill-rule="evenodd">
        <g fill="#FEE0A9" fill-rule="nonzero">
            <g>
                <g>
                    <g>
                        <g>
                            <path d="M3.751 7.891l4.144-4.297c.14-.145.14-.383 0-.528l-.927-.957c-.14-.145-.363-.145-.502 0L3.5 5.189.534 2.108c-.14-.145-.363-.145-.502 0l-.927.957c-.14.145-.14.383 0 .528L3.249 7.89c.14.145.363.145.502 0z" transform="translate(-1108 -1534) translate(0 1412) translate(80 94) translate(831 20) translate(197) rotate(-90 7.5 9)"/>
                        </g>
                    </g>
                </g>
            </g>
        </g>
    </g>
</svg>
