<svg xmlns="http://www.w3.org/2000/svg" width="17" height="16" viewBox="0 0 17 16">
    <g fill="none" fill-rule="evenodd">
        <g fill="#FFF">
            <g>
                <g>
                    <path d="M3.762.084c.07.068 2.174 3.374 2.23 3.484.054.109.082.217.082.323 0 .15-.113.34-.338.566-.225.226-.47.434-.735.623s-.51.389-.735.6c-.225.211-.338.385-.338.52.015.354.318 1.617 2.622 3.551 1.92 1.612 3.011 2.259 3.383 2.451l.075.038c.031.015.052.024.063.028.106.037.195.056.266.056.143 0 .325-.108.546-.322.22-.216.964-1.19 1.202-1.405.237-.215.435-.322.593-.322.11 0 .224.026.338.079l.078.041c.531.288 3.506 1.954 3.568 2.014.18.175.053.724-.083 1.035-.949 2.174-3.174 2.555-3.9 2.555h-.139c-.704-.007-3.843-.233-8.179-4.163C.514 8.351.045 4.602.004 3.89c-.04-.694.168-2.434 2.673-3.727.31-.16.927-.231 1.085-.079zm8.433.189c.276.272.276.712 0 .984l-1.084 1.07h3.51c1.17 0 2.122.936 2.122 2.088l.004 2.957c0 .384-.315.696-.705.697-.39 0-.707-.31-.707-.695l-.003-2.959c0-.384-.319-.696-.71-.696H11.04l1.155 1.138c.276.272.276.713 0 .985-.276.271-.723.271-.998 0L8.373 3.057 11.197.273c.275-.272.722-.272.998 0z" transform="translate(-49 -402) translate(0 376) translate(30 9) translate(19 17)"/>
                </g>
            </g>
        </g>
    </g>
</svg>
