<svg xmlns="http://www.w3.org/2000/svg" width="12" height="8" viewBox="0 0 9 6">
    <g fill="none" fill-rule="evenodd">
        <g fill="#003e6a">
            <g>
                <g>
                    <g>
                        <g>
                            <path d="M149.751 14.891l4.144-4.297c.14-.145.14-.383 0-.528l-.927-.957c-.14-.145-.363-.145-.502 0l-2.966 3.08-2.966-3.08c-.14-.145-.363-.145-.502 0l-.927.957c-.14.145-.14.383 0 .528l4.144 4.297c.14.145.363.145.502 0z" transform="translate(-1074 -488) translate(0 376) translate(0 70) translate(662 33) translate(267)"/>
                        </g>
                    </g>
                </g>
            </g>
        </g>
    </g>
</svg>
