<svg xmlns="http://www.w3.org/2000/svg" width="14" height="7" viewBox="0 0 14 7">
    <path fill="#003d69" fill-rule="evenodd"
          d="M9.28639375,1.82306274 L13.3685077,6.75625296 L13.3685077,6.75625296 L0.5816717,6.75625296 L4.66378561,1.82306274 C5.72006156,0.54656475 7.61114848,0.368039515 8.88764647,1.42431547 C9.03278729,1.54441652 9.16629269,1.67792193 9.28639375,1.82306274 Z"/>
</svg>
