<svg xmlns="http://www.w3.org/2000/svg" width="16" height="16" viewBox="0 0 16 16">
    <g fill="none" fill-rule="evenodd">
        <g fill="#21201E">
            <g>
                <g>
                    <g>
                        <path d="M8 0C3.582 0 0 3.582 0 8s3.582 8 8 8 8-3.582 8-8-3.582-8-8-8zm3.298 4.8c-.205-1.045-.51-1.969-.885-2.724 1.317.54 2.413 1.504 3.121 2.724h-2.236zm2.89 4.8h-2.66c.047-.517.072-1.052.072-1.6s-.025-1.083-.072-1.6h2.662c.131.513.21 1.047.21 1.6 0 .553-.078 1.087-.211 1.6zM6.34 11.2h3.32C9.188 13.282 8.35 14.4 8 14.4s-1.188-1.116-1.66-3.2zm-.258-1.6C6.03 9.102 6 8.57 6 8c0-.57.03-1.102.082-1.6h3.836C9.97 6.898 10 7.43 10 8c0 .57-.03 1.102-.082 1.6H6.082zm-4.27-3.2h2.66C4.426 6.917 4.4 7.452 4.4 8s.025 1.083.072 1.6h-2.66C1.677 9.087 1.6 8.553 1.6 8c0-.553.078-1.087.211-1.6zM9.66 4.8H6.34C6.811 2.716 7.65 1.6 8 1.6s1.188 1.116 1.66 3.2zm-4.958 0H2.466c.708-1.22 1.804-2.185 3.12-2.724-.374.755-.679 1.68-.884 2.724zm0 6.4c.205 1.045.51 1.969.885 2.724-1.317-.54-2.413-1.504-3.121-2.724h2.236zm6.596 0h2.236c-.708 1.22-1.803 2.185-3.12 2.724.374-.755.679-1.68.884-2.724z" transform="translate(-733 -402) translate(0 376) translate(733 22) translate(0 4)"/>
                    </g>
                </g>
            </g>
        </g>
    </g>
</svg>
