<svg xmlns="http://www.w3.org/2000/svg" width="17" height="16" viewBox="0 0 17 16">
    <g fill="none" fill-rule="evenodd">
        <g fill="#ffffff">
            <g>
                <g>
                    <g>
                        <g>
                            <g>
                                <path d="M15.836 13.444C14.93 15.618 12.805 16 12.11 16c-.204 0-3.38.168-7.944-4.163C.49 8.351.043 4.602.004 3.89c-.038-.694.16-2.434 2.553-3.727.297-.16.885-.231 1.036-.079.068.068 2.077 3.374 2.13 3.484.052.109.079.217.079.323 0 .15-.108.34-.323.566-.215.226-.45.434-.702.623-.253.189-.487.389-.702.6-.215.211-.323.385-.323.52.014.354.303 1.617 2.504 3.551 2.202 1.934 3.262 2.48 3.363 2.517.102.037.187.056.255.056.136 0 .31-.108.521-.322.211-.216.922-1.19 1.149-1.405.226-.215.415-.322.566-.322.106 0 .213.026.322.079.11.053 3.42 1.99 3.483 2.055.172.175.05.724-.079 1.035" transform="translate(-507 -7349) translate(130 240) translate(337) translate(0 6749) translate(40.144) translate(0 92) translate(0 268)"/>
                            </g>
                        </g>
                    </g>
                </g>
            </g>
        </g>
    </g>
</svg>
