<svg xmlns="http://www.w3.org/2000/svg" width="15" height="14" viewBox="0 0 15 14">
    <g fill="none" fill-rule="evenodd">
        <g fill="#0474B7">
            <g>
                <g>
                    <g>
                        <g>
                            <g>
                                <path d="M7 0C3.143 0 0 3.143 0 7s3.143 7 7 7 7-3.143 7-7-3.143-7-7-7zm0 1.5c3.047 0 5.5 2.453 5.5 5.5s-2.453 5.5-5.5 5.5S1.5 10.047 1.5 7 3.953 1.5 7 1.5zm0 1c-.414 0-.75.336-.75.75V7c0 .277.151.519.375.648l2.813 1.625c.358.207.816.085 1.023-.273.207-.358.085-.816-.274-1.023L7.75 6.57V3.25c0-.414-.336-.75-.75-.75z" transform="translate(-507 -7125) translate(130 240) translate(337) translate(0 6749) translate(40.144) translate(0 92) translate(0 44)"/>
                            </g>
                        </g>
                    </g>
                </g>
            </g>
        </g>
    </g>
</svg>
