<svg width="121" height="264" viewBox="0 0 121 264" xmlns="http://www.w3.org/2000/svg">
    <path d="M.67 264h120C53.96 184.548 7.28 89.97 7.28 12.64c0-4.306.144-8.522.43-12.64H.67v264z" fill="#003D69" fill-rule="evenodd"/>
</svg>
